<?xml version="1.0" standalone="no"?>
<!DOCTYPE svg PUBLIC "-//W3C//DTD SVG 1.1//EN" "http://www.w3.org/Graphics/SVG/1.1/DTD/svg11.dtd">
<svg xmlns="http://www.w3.org/2000/svg">
<metadata>Generated by Fontastic.me</metadata>
<defs>
<font id="untitled-font-1" horiz-adv-x="512">
<font-face font-family="untitled-font-1" units-per-em="512" ascent="480" descent="-32"/>
<missing-glyph horiz-adv-x="512" />

<glyph unicode="&#97;" d="M256 0c141 0 256 115 256 256 0 141-115 256-256 256-141 0-256-115-256-256 0-141 115-256 256-256z m0 472c119 0 216-97 216-216 0-119-97-216-216-216-119 0-216 97-216 216 0 119 97 216 216 216z m-43-323c6-7 16-7 22 0l96 96c7 6 7 16 0 22l-96 96c-3 3-7 5-11 5-4 0-8-2-11-5-7-6-7-16 0-22l84-85-84-85c-7-6-7-16 0-22z"/>
<glyph unicode="&#98;" d="M256 512c-141 0-256-115-256-256 0-141 115-256 256-256 141 0 256 115 256 256 0 141-115 256-256 256z m0-472c-119 0-216 97-216 216 0 119 97 216 216 216 119 0 216-97 216-216 0-119-97-216-216-216z m49 323c-6 7-16 7-22 0l-96-96c-7-6-7-16 0-22l96-96c3-3 7-5 11-5 4 0 8 2 11 5 7 6 7 16 0 22l-84 85 84 85c7 6 7 16 0 22z"/>
<glyph unicode="&#99;" d="M371 512c7 0 13-3 18-8 5-5 8-11 8-18 0 0 0-435 0-435 0 0-77 92-77 92 0 0 0 318 0 318 0 7-3 13-8 18-5 5-11 7-18 7 0 0-51 0-51 0 0 17 7 26 21 26 0 0 107 0 107 0m-128-77c7 0 13-2 18-7 5-6 8-12 8-18 0 0 0-410 0-410 0 0-77 92-77 92 0 0-77-92-77-92 0 0 0 410 0 410 0 17 7 25 21 25 0 0 107 0 107 0"/>
<glyph unicode="&#100;" d="M323 486c7 0 13-2 18-7 5-5 7-11 7-18 0 0 0-435 0-435 0 0-92 92-92 92 0 0-92-92-92-92 0 0 0 435 0 435 0 17 7 25 20 25 0 0 139 0 139 0"/>
<glyph unicode="&#101;" d="M200 199c0 0 0-35 0-35 0 0-103 41-103 41 0 0 0 35 0 35 0 0 103-41 103-41m0 106c0 0 0-35 0-35 0 0-103 41-103 41 0 0 0 35 0 35 0 0 103-41 103-41m275 177c8-4 11-11 11-21 0 0 0-328 0-328 0-11-5-19-16-23 0 0-204-82-204-82-2-1-4-1-5-1-1 0-1-1-2-1-1 0-2 0-3 0-1 0-2 0-3 0-1 0-1 1-2 1 0 0-5 1-5 1 0 0-204 82-204 82-11 4-16 12-16 23 0 0 0 328 0 328 0 10 3 17 11 21 7 6 15 7 23 3 0 0 196-78 196-78 0 0 196 78 196 78 8 4 16 3 23-3m-245-403c0 0 0 287 0 287 0 0-163 65-163 65 0 0 0-287 0-287 0 0 163-65 163-65m215 65c0 0 0 287 0 287 0 0-163-65-163-65 0 0 0-287 0-287 0 0 163 65 163 65m-30 96c0 0 0-35 0-35 0 0-103-41-103-41 0 0 0 35 0 35 0 0 103 41 103 41m0 106c0 0 0-35 0-35 0 0-103-41-103-41 0 0 0 35 0 35 0 0 103 41 103 41"/>
<glyph unicode="&#102;" d="M367 176c6-6 9-13 9-22 0-8-3-16-9-22-6-5-13-8-22-8-8 0-16 3-22 8 0 0-68 78-68 78 0 0-67-78-67-78-6-5-14-8-22-8-9 0-16 3-22 8-6 6-8 14-8 22 0 9 2 16 8 22 0 0 71 80 71 80 0 0-71 81-71 81-6 6-8 13-8 22 0 8 2 16 8 22 6 5 13 8 22 8 8 0 16-3 22-8 0 0 67-78 67-78 0 0 68 78 68 78 6 5 14 8 22 8 9 0 16-3 22-8 6-6 9-14 9-22 0-9-3-16-9-22 0 0-71-81-71-81 0 0 71-80 71-80"/>
<glyph unicode="&#103;" d="M185 234c0 0 0 47 0 47 0 0 144 0 144 0 0 0 0-47 0-47 0 0-144 0-144 0m199 252c14 0 26-5 36-14 10-10 15-22 15-37 0 0 0-358 0-358 0-14-5-26-15-36-10-10-22-15-36-15 0 0-256 0-256 0-14 0-26 5-36 15-10 10-15 22-15 36 0 0 0 358 0 358 0 15 5 27 15 37 10 9 22 14 36 14 0 0 256 0 256 0m0-409c0 0 0 358 0 358 0 0-256 0-256 0 0 0 0-358 0-358 0 0 256 0 256 0m-56 303c0 0 0-45 0-45 0 0-144 0-144 0 0 0 0 45 0 45 0 0 144 0 144 0m0-201c0 0 0-45 0-45 0 0-144 0-144 0 0 0 0 45 0 45 0 0 144 0 144 0"/>
<glyph unicode="&#104;" d="M368 67c9-9 9-18 0-25-8-9-17-9-24 0 0 0-201 202-201 202-8 8-8 16 0 25 0 0 201 202 201 202 7 9 16 9 24 0 9-7 9-16 0-25 0 0-183-190-183-190 0 0 183-189 183-189"/>
<glyph unicode="&#105;" d="M256 461c36 0 66-13 91-38 25-24 37-55 37-90 0-36-11-78-32-125-21-46-42-84-64-114 0 0-32-43-32-43-3 4-8 10-14 18-6 8-16 23-31 46-14 22-27 44-38 66-12 22-22 47-31 76-9 28-14 53-14 76 0 35 12 66 37 90 25 25 56 38 91 38m0-199c19 0 36 7 49 21 14 13 21 30 21 49 0 19-7 35-21 48-13 14-30 20-49 20-19 0-35-6-49-20-13-13-20-29-20-48 0-19 7-36 20-49 14-14 30-21 49-21"/>
<glyph unicode="&#106;" d="M410 282c7 0 13-3 18-8 5-5 7-11 7-18 0-7-2-13-7-18-6-5-12-8-18-8 0 0-308 0-308 0-6 0-12 3-18 8-5 5-7 11-7 18 0 7 2 13 7 18 5 5 11 8 18 8 0 0 308 0 308 0m-308 51c-6 0-12 2-18 7-5 6-7 12-7 18 0 7 2 13 7 18 5 5 11 8 18 8 0 0 308 0 308 0 7 0 13-3 18-8 5-5 7-11 7-18 0-6-2-12-7-18-6-5-12-7-18-7 0 0-308 0-308 0m308-154c7 0 13-2 18-7 5-6 7-12 7-18 0-7-2-13-7-18-6-5-12-8-18-8 0 0-308 0-308 0-6 0-12 3-18 8-5 5-7 11-7 18 0 6 2 12 7 18 5 5 11 7 18 7 0 0 308 0 308 0"/>
<glyph unicode="&#107;" d="M144 67c0 0 183 189 183 189 0 0-183 190-183 190-9 9-9 18 0 25 8 9 17 9 24 0 0 0 201-202 201-202 8-9 8-17 0-25 0 0-201-202-201-202-7-9-16-9-24 0-9 7-9 16 0 25"/>
</font></defs></svg>
